PD1
…
##    Min. 1st Qu.  Median    Mean 3rd Qu.    Max. 
##    1.00   18.87   39.98   70.21   84.60 3299.00

summary(logmean_price_by_rating$price)

##    Min. 1st Qu.  Median    Mean 3rd Qu.    Max. 
##   0.000   2.937   3.688   3.636   4.438   8.101

logmean_price_by_rating

## # A tibble: 35,468 x 2
##    rating price
##     <dbl> <dbl>
##  1     -1  5.45
##  2      0  5.72
##  3      1  5.71
##  4      2  5.22
##  5      3  5.11
##  6      4  5.18
##  7      5  4.70
##  8      6  4.87
##  9      7  6.25
## 10      8  6.10
## #  with 35,458 more rows
…
