Eksploracja danych Api Allegro
…
Na tych wykresach przedstawione zostaÅ‚y kategorie o najwiÄ™kszej i najmniejszej Å›redniej ceny produktÃ³w.

ZaleÅ¼noÅ›Ä‡ Seller rating od number of orders

myFreqs <- final %>% 
  group_by(seller, it_seller_rating) %>%
  summarise(Freq = n())
myFreqs <- arrange(myFreqs, -Freq)
myFreqs

## # A tibble: 165,503 x 3
## # Groups:   seller [51,065]
##    seller       it_seller_rating  Freq
##    <chr>                   <dbl> <int>
##  1 Aros_pl                288017   230
##  2 PSC-prepaid              9722   208
##  3 darmarsklep            145143   194
##  4 SmA-Converse             2506   185
##  5 leobert                 89478   151
##  6 darmarsklep            145076   149
##  7 gladi20                 20013   139
##  8 miododajne              11123   129
##  9 animalsvet               1931   126
## 10 NaszeZooPL                605   121
## # ... with 165,493 more rows
…
